<?xml version="1.0" encoding="UTF-8" standalone="no"?>
<svg xmlns:dc="http://purl.org/dc/elements/1.1/" xmlns:cc="http://creativecommons.org/ns#"
  xmlns:rdf="http://www.w3.org/1999/02/22-rdf-syntax-ns#" xmlns:svg="http://www.w3.org/2000/svg"
  xmlns="http://www.w3.org/2000/svg" xmlns:sodipodi="http://sodipodi.sourceforge.net/DTD/sodipodi-0.dtd"
  xmlns:inkscape="http://www.inkscape.org/namespaces/inkscape" version="1.1" id="svg2" xml:space="preserve"
  width="793.70135" height="793.70135" viewBox="0 0 793.70135 793.70135" sodipodi:docname="logo.svg"
  inkscape:version="1.0.2 (e86c870879, 2021-01-15)">
  <metadata id="metadata8">
    <rdf:RDF>
      <cc:Work rdf:about="">
        <dc:format>image/svg+xml</dc:format>
        <dc:type rdf:resource="http://purl.org/dc/dcmitype/StillImage" />
        <dc:title></dc:title>
      </cc:Work>
    </rdf:RDF>
  </metadata>
  <defs id="defs6">
    <clipPath clipPathUnits="userSpaceOnUse" id="clipPath18">
      <path d="M 0,595.276 H 595.276 V 0 H 0 Z" id="path16" />
    </clipPath>
  </defs>
  <sodipodi:namedview pagecolor="#ffffff" bordercolor="#666666" borderopacity="1" objecttolerance="10"
    gridtolerance="10" guidetolerance="10" inkscape:pageopacity="0" inkscape:pageshadow="2" inkscape:window-width="1920"
    inkscape:window-height="1080" id="namedview4" showgrid="false" inkscape:zoom="0.78220826" inkscape:cx="247.3875"
    inkscape:cy="404.19145" inkscape:window-x="0" inkscape:window-y="0" inkscape:window-maximized="0"
    inkscape:current-layer="g10" />
  <g id="g10" inkscape:groupmode="layer" inkscape:label="A3_signe"
    transform="matrix(1.3333333,0,0,-1.3333333,0,793.70133)">
    <g id="g12">
      <g id="g14" clip-path="url(#clipPath18)">
        <g id="g20" transform="translate(296.0415,18.9666)">
          <path
            d="m 0,0 h 273.735 c 1.128,0.001 2.256,-0.006 3.384,0.009 0.448,0.007 0.896,0.057 1.343,0.101 0.418,0.042 0.875,0.468 0.891,0.875 0.051,1.351 0.111,2.702 0.111,4.053 0.005,54.927 0.005,109.855 0.004,164.782 0,1.015 0.002,2.031 -0.013,3.045 -0.005,0.336 -0.06,0.672 -0.099,1.007 -0.047,0.405 -0.479,0.852 -0.9,0.867 -1.35,0.051 -2.701,0.108 -4.05,0.108 -182.716,0.005 -365.431,0.004 -548.147,0.004 -0.902,0 -1.804,0 -2.707,-0.008 -0.338,-0.004 -0.676,-0.026 -1.013,-0.051 -0.553,-0.04 -1.064,-0.527 -1.083,-1.092 -0.048,-1.351 -0.092,-2.703 -0.092,-4.054 -0.005,-54.815 -0.004,-109.63 -0.004,-164.445 0,-0.902 -0.006,-1.805 0.009,-2.707 0.007,-0.449 0.047,-0.898 0.085,-1.348 0.047,-0.56 0.537,-1.069 1.091,-1.084 1.353,-0.035 2.706,-0.059 4.059,-0.059 C -182.264,0 -91.132,0 0,0 m 0.284,183.247 h 273.07 c 1.128,10e-4 2.256,-0.002 3.384,0.006 0.451,0.003 0.902,0.021 1.351,0.052 0.789,0.052 1.285,0.507 1.315,1.246 0.041,1.013 0.061,2.028 0.062,3.042 0.005,7.219 0.003,14.437 0.003,21.656 0,51.546 0,103.092 -0.003,154.638 0,1.352 -0.03,2.705 -0.069,4.057 -0.018,0.602 -0.482,1.117 -1.034,1.135 -1.465,0.045 -2.93,0.081 -4.395,0.081 -182.385,0.004 -364.77,0.003 -547.155,0.003 -0.902,0 -1.804,0.004 -2.707,-0.004 -0.45,-0.003 -0.901,-0.018 -1.352,-0.043 -0.797,-0.046 -1.291,-0.484 -1.319,-1.235 -0.047,-1.238 -0.072,-2.479 -0.072,-3.718 -0.004,-31.356 -0.003,-62.713 -0.003,-94.069 0,-27.295 -0.001,-54.591 0.003,-81.887 10e-4,-1.239 0.039,-2.479 0.082,-3.718 0.021,-0.575 0.518,-1.135 1.036,-1.152 1.464,-0.046 2.93,-0.086 4.395,-0.086 91.136,-0.004 182.272,-0.004 273.408,-0.004 M 287.506,-4.366 c -1.052,-1.062 -2.154,-2.189 -3.278,-3.293 -0.501,-0.492 -1.126,-0.722 -1.838,-0.721 -1.353,0.002 -2.707,-0.016 -4.06,-0.016 -172.233,0 -344.465,0 -516.698,0 -13.309,0 -26.618,0 -39.928,0 -0.902,0 -1.807,0.045 -2.706,-0.005 -1.225,-0.07 -2.168,0.395 -2.983,1.28 -0.913,0.991 -1.881,1.931 -2.806,2.872 -0.041,0.653 -0.107,1.213 -0.107,1.772 -0.005,125.196 -0.005,250.392 -0.005,375.332 0.5,1.239 1.361,1.829 2.055,2.551 0.7,0.727 1.459,1.397 2.172,2.073 0.652,0.038 1.21,0.091 1.768,0.098 1.241,0.014 2.482,0.007 3.722,0.007 h 554.935 c 1.127,0 2.255,0.011 3.383,-0.003 2.365,-0.03 2.136,0.215 4.119,-1.757 0.56,-0.556 1.119,-1.115 1.662,-1.687 0.23,-0.243 0.419,-0.525 0.664,-0.835 0.036,-0.407 0.112,-0.854 0.112,-1.302 10e-4,-125.085 -0.004,-250.17 -0.016,-375.255 0,-0.333 -0.096,-0.666 -0.167,-1.111"
            style="fill:#1d1d1b;fill-opacity:1;fill-rule:nonzero;stroke:none" id="path22" />
        </g>
        <g id="g24" transform="translate(51.0547,547.2034)">
          <path id="path26" style="fill:#1d1d1b;fill-opacity:1;fill-rule:nonzero;stroke:none"
            d="M 0,0 C 0.6981374,4.4667152 9.8853041,13.218919 10.458672,5.6112344 6.3000085,1.2685426 2.3194948,-3.7044064 -0.528,-8.963 -3.2370898,-14.16851 -5.7578053,-19.741549 -7.8531719,-25.362797 -10.619468,-31.920045 -13.209679,-38.429725 -15.574,-45.111 c -2.902218,-5.320273 -1.931252,-12.31593 5.475625,-11.832406 5.8951058,-1.623494 12.1179538,0.833655 18.1745527,1.018914 C 20.376295,-53.266349 32.792992,-48.620067 42.07,-39.882 c 5.761408,5.610345 10.106885,12.605985 12.68175,20.201625 -0.170001,7.980378 4.354369,15.1822303 2.187625,23.631625 C 56.260427,14.609547 50.972387,27.006536 39.718125,29.882625 28.069675,31.327227 16.282587,26.519951 7.089,19.613 -4.5099205,10.913531 -12.408712,-2.1692353 -15.017,-16.407 c -7.504625,-5.851838 -4.653706,7.7733743 -2.724875,11.4517285 4.939257,14.0431279 14.877203,26.4580775 27.786111,33.9318965 6.28537,3.832109 13.390812,6.450839 20.726764,7.406375 7.798888,1.502312 16.582149,-0.627927 22.0625,-6.429375 4.233751,-4.171554 7.6403,-9.359119 8.869412,-15.351359 C 63.681951,7.5247493 65.023565,0.06633676 63.643,-7.287 63.997058,-13.768194 61.043039,-19.17635 59.45477,-25.104578 54.304559,-37.181957 45.239654,-47.689307 33.518,-53.75 28.163754,-58.092831 21.163575,-59.149661 15.05675,-62.06075 7.7060334,-63.269364 0.42892645,-65.152447 -7.0632188,-65.095219 -11.611781,-66.680596 -20.74716,-59.217907 -21.003,-66.079 c -1.21384,-5.98648 -5.10127,-11.593157 -5.907,-18.14975 -2.427417,-6.238987 -2.449296,-13.145023 -4.805,-19.49925 -3.135844,-7.66376 0.06162,-16.03939 -5.97275,-22.95825 -2.68201,-0.58547 -9.632128,-2.98476 -7.01325,2.71425 2.300921,8.86956 4.572324,17.862 7.17777,26.681055 1.028938,7.019314 4.160711,13.516503 5.31273,20.43132 1.703958,6.124663 1.807299,11.832265 5.2685,17.286625 1.854696,6.965024 4.2561,13.7082 6.784344,20.469953 1.952343,6.583791 5.357637,12.619249 7.508656,19.063047 2.8235557,5.667075 6.061753,10.7957786 9.222,16.195 C -3.2185601,-1.9313185 -1.4429551,-0.93434672 0,0 Z" />
        </g>
        <g id="g28" transform="translate(229.6416,414.2694)">
          <path id="path30" style="fill:#1d1d1b;fill-opacity:1;fill-rule:nonzero;stroke:none"
            d="M 0,0 C 12.249484,3.4085776 16.988575,17.638327 22.396914,27.852057 26.003713,36.746359 28.281553,45.82914 28.812,55.248 31.147144,70.581018 14.210176,57.094151 9.6821875,51.969562 -0.81929052,39.514337 -5.2309583,22.43456 -4.522,6.5 -3.584572,4.0856316 -3.7816328,-0.35476583 0,0 Z M -19.398,92.364 C -5.8816254,104.31872 17.2969,99.204676 27.25952,84.839223 31.661558,77.505314 33.015939,68.0604 43.784672,72.586125 49.139353,73.121859 68.838683,70.023479 60.618,64.356 51.268193,64.189866 29.845729,72.293348 35.761668,55.074857 35.225195,34.008333 25.801861,13.180224 10.647797,-1.416 1.7131159,-11.808722 -14.926004,-5.8012196 -12.03225,8.7886719 -12.167606,20.448336 -9.2796955,32.043133 -4.177,42.486 2.1294606,54.833619 12.818354,65.472643 26.347125,69.399125 24.58496,79.876776 15.191622,88.6355 4.8435937,90.768422 -4.1342261,92.922439 -18.802305,91.479723 -14.290643,78.643471 -15.255911,60.646964 -22.049154,43.145828 -32.620375,28.729953 -38.283984,21.263365 -46.752958,14.693984 -53.92225,7.955 -56.204684,1.2548899 -74.45675,1.5917993 -66.276,8.565 c 10.712166,4.696379 19.873122,14.524767 25.936125,24.314 9.002398,7.44352 12.877853,19.754286 16.392875,30.793 2.581882,9.432825 1.857663,19.573231 4.549,28.692 z" />
        </g>
        <g id="g32" transform="translate(96.0542,424.5355)">
          <path id="path34" style="fill:#1d1d1b;fill-opacity:1;fill-rule:nonzero;stroke:none"
            d="M 0,0 C 17.187202,1.6870279 36.23872,6.4959563 46.975656,21.260734 53.805269,27.751932 54.920578,39.032769 42.581,34.331 31.89757,34.029771 21.890358,29.765129 12.1235,25.149875 4.2429078,20.133263 -12.232204,13.277051 -8.4577187,2.1098594 -5.7479521,1.1069936 -2.8780259,0.31184716 0,0 Z M 55.454,48.331 C 55.839765,59.796848 51.49061,75.706923 37.907516,77.024984 15.562823,76.969237 -3.7524225,58.186636 -7.5407344,36.689703 -18.028991,30.804 -8.983335,52.494616 -5.7553437,56.904562 4.1664783,73.031985 22.888969,85.673713 42.380875,82.929875 55.099913,79.446674 60.668885,66.107614 61.930125,54.050875 58.307925,41.951486 64.350154,37.884699 74.437,33.934 82.526604,33.052453 87.427424,13.442728 77.161,20.244 72.985959,27.541567 57.491408,39.789755 56.160664,24.696107 46.796837,5.8562936 25.958344,-4.3337395 5.872,-6.55 c -8.6672722,-1.6568716 -25.363798,-0.050846 -22.043984,12.61325 4.541418,13.44658 17.751962,21.56877 29.814468,27.552922 12.614598,6.53342 27.071378,9.049137 41.082141,7.939953 0.897504,2.006442 0.34517,4.591143 0.729375,6.774875 z" />
        </g>
        <g id="g36" transform="translate(374.7315,462.9085)">
          <path id="path38" style="fill:#1d1d1b;fill-opacity:1;fill-rule:nonzero;stroke:none"
            d="m 0,0 c 4.1623744,-0.00668305 7.2868834,2.457517 11.296,3.203625 6.00455,1.8389449 11.679906,4.6363603 17.006344,7.93375 6.083016,2.615621 10.894127,7.471683 15.428843,12.147906 3.262318,3.665785 2.368964,9.930389 -3.518937,9.474641 C 35.779461,34.475759 31.258403,32.343761 26.712875,32.418375 21.438435,31.659963 16.15939,30.298081 11.188206,28.350792 4.9603297,25.988092 -0.96778781,22.609085 -5.9603711,18.206687 -10.009848,14.163954 -13.476928,9.4257354 -15.691875,4.162 c -2.27099,-2.7231273 -1.389919,-5.4689658 2.31052,-5.3589844 4.1619333,-0.4304775 7.9837346,0.69029452 12.0880581,1.30251565 l 0.62810354,-0.01551172 z m -40.064,1.14 c 3.034178,1.8187763 -3.493403,5.6836966 0.566125,5.970375 4.078733,2.3224401 7.030948,-4.1146111 11.281594,-4.8499687 2.408906,-1.44940447 6.30342,-2.49059397 5.775418,1.7171757 4.317646,11.022316 12.330261,20.753077 22.86234347,26.322322 3.79549633,3.110703 8.49636013,4.355936 12.99689453,6.017346 4.451821,2.46915 9.620992,2.583996 14.51775,3.40625 5.656834,1.577685 11.703964,0.985924 17.351375,-0.213875 4.414354,-0.929173 8.022517,-5.186327 7.187781,-9.824109 C 51.290932,21.040678 44.59215,14.552068 37.915029,9.5707869 34.131815,6.0401756 29.462486,3.6417468 24.92683,1.2132432 18.052322,-1.9740009 11.111783,-5.1874647 3.6512422,-6.6711504 -3.6127037,-8.5371186 -11.154174,-7.7605141 -18.550141,-7.8571094 c -1.511713,-3.8416656 -0.862063,-8.5677536 -0.6619,-12.7402716 0.693753,-9.130915 5.009999,-19.64291 14.5500722,-22.457088 10.817002,-1.337803 21.7147648,3.088884 30.0285318,9.802969 9.428939,7.448659 15.961566,18.399106 18.097968,30.207125 2.048214,4.0702956 6.930049,1.578642 5.0195,-2.55375 C 46.02055,-18.940604 38.073193,-30.915866 27.437,-39.195 23.043873,-42.58868 18.062438,-45.308275 12.844492,-47.222271 7.5070026,-49.035449 1.8387217,-50.351474 -3.811,-49.545 c -3.9713248,0.588661 -8.44774,2.045269 -11.263078,5.046953 -3.596158,3.181405 -6.774087,7.296713 -8.095047,12.031422 -2.492161,7.24234 -3.803012,15.07084 -2.4095,22.674 1.826047,5.243428 -5.273658,4.402685 -8.053176,6.5990691 C -35.874748,-1.9631238 -38.352976,-0.791968 -40.064,1.14 Z" />
        </g>
        <g id="g40" transform="translate(320.2305,501.9383)">
          <path id="path42" style="fill:#1d1d1b;fill-opacity:1;fill-rule:nonzero;stroke:none"
            d="m 0,0 c 6.0897908,16.329778 11.614275,33.134242 20.918,47.965 0.942842,7.999632 14.224677,8.943313 6.211625,0.817 C 20.917135,35.191618 13.705494,21.634582 9.785,7.214 3.3368002,-5.1452872 22.681457,5.2184504 27.820125,6.914375 38.371098,10.962089 46.71635,18.758006 55.648,25.257 66.629777,21.65001 50.675178,13.090484 46.737266,9.2058125 34.546089,0.58365465 20.249191,-5.3806446 5.433125,-7.08225 1.8817987,-16.277455 -2.3114052,-26.426117 -2.015,-36.396 c 1.85120611,-7.2977 -5.8020261,-13.373224 -7.5509133,-20.661345 -3.6061417,-5.403409 -3.9155427,-24.976315 -12.6669617,-16.775905 2.301276,12.043308 7.837929,23.597208 10.683922,35.697187 2.9458996,9.865882 6.0311414,19.641062 8.849953,29.505063 -8.922409,3.003987 -21.578787,-0.3835591 -30.686,3.90425 -8.687621,2.0337516 -2.983048,12.4452072 3.07425,5.7725 C -20.428273,-0.93398312 -9.9787317,-0.77983848 0,0 Z" />
        </g>
        <g id="g44" transform="translate(448.6787,451.2791)">
          <path id="path46" style="fill:#1d1d1b;fill-opacity:1;fill-rule:nonzero;stroke:none"
            d="m 0,0 c -2.2435594,-4.2500778 0.48414741,-8.1240308 2.4609421,-11.909436 4.4407414,-7.739223 11.1860209,-15.382144 20.4953489,-16.699417 3.537498,-0.248632 7.258006,0.527194 10.213709,2.635853 6.319356,3.753523 10.839907,9.717109 14.5905,15.897734 6.146106,11.7142232 7.902512,25.770062 3.9545,38.476266 -2.399344,3.31404 3.464546,8.120755 4.65,2.975625 3.240077,-8.460147 3.744097,-17.814614 2.307484,-26.7112363 -0.726938,-6.2152012 -3.022349,-12.1559995 -5.686458,-17.7736367 -2.719825,-4.186709 -5.069371,-8.679298 -8.825977,-12.089001 -3.436825,-3.6312 -7.523761,-6.661874 -12.139049,-8.575751 -3.070235,-1.610589 -6.779597,-0.830694 -10.02325,-1.567859 -3.925006,0.880871 -7.424767,2.68592 -11.130725,4.175828 -3.2348024,2.347494 -5.970717,5.319174 -8.663025,8.250031 -2.89872451,2.694739 -4.5773636,6.375086 -6.672,9.673 -0.8041536,3.9646307 -3.6385131,6.8326617 -5.29,10.341 -2.103275,2.88540024 2.0292222,4.3320584 -0.096625,7.254125 -1.568115,11.739586 0.8292848,24.168845 7.3882402,34.110863 1.55986142,4.13525 4.7152657,7.231222 7.5149473,10.511043 1.5593203,1.374424 2.6545014,5.06763 5.1044375,2.828969 2.234413,3.005676 3.869199,-0.522654 5.132,-1.992 C 12.661194,46.560341 9.0531489,44.119989 6.7297109,40.56207 2.9429057,36.005325 -0.05878656,30.746923 -2.156375,25.216094 -3.7626293,20.460426 -4.0269724,15.421629 -4.4025,10.483625 -3.7924904,7.6450526 -4.8804095,3.1585292 -1.1517344,2.9559062 -1.4340641,1.6934215 -0.70348273,0.90625436 0,0 Z" />
        </g>
        <g id="g48" transform="translate(531.4717,447.1615)">
          <path id="path50" style="fill:#1d1d1b;fill-opacity:1;fill-rule:nonzero;stroke:none"
            d="m 0,0 c -5.6553494,-8.816632 -9.6297607,-18.582294 -12.681,-28.564 -0.644508,-3.636101 -2.749935,-9.162848 -7.38,-6.465 -3.20943,5.042792 2.159831,10.409574 2.87025,15.563625 1.682983,5.458968 3.792791,10.7698887 5.11575,16.360375 1.677841,6.5423534 4.3109335,12.8007972 5.63,19.437 1.6178278,4.775854 3.4150144,9.440313 4.488168,14.36526 1.39055059,2.669688 -3.0074279,3.124905 -2.114168,6.33999 -2.5834852,5.512135 6.6281226,1.082665 6.398,6.39675 2.5552231,2.558969 6.6303286,-3.655513 10.126296,-1.535487 11.992886,2.878798 23.481683,7.997002 33.317272,15.480206 3.624765,1.826765 7.227799,8.236667 11.505073,4.954094 C 60.698753,58.84566 55.36611,56.273887 53.149379,53.972366 42.104164,44.673305 28.736416,38.182999 14.70551,34.882905 11.088234,33.823168 4.815714,35.37612 4.949,29.735 3.9300274,25.256983 1.4808302,21.088 0.86264062,16.534625 -0.56104234,11.708225 -1.6281064,6.7411958 -0.898125,1.89475 -1.089085,1.135682 -0.30758392,0.59047674 0,0 Z" />
        </g>
        <g id="g52" transform="translate(77.2007,293.8192)">
          <path
            d="m 0,0 c 0,-19.493 0.002,-38.986 -0.004,-58.479 -0.001,-1.124 -0.058,-2.249 -0.11,-3.372 -0.021,-0.449 -0.436,-0.877 -0.844,-0.909 -0.559,-0.045 -1.12,-0.097 -1.681,-0.097 -7.098,-0.007 -14.197,-0.007 -21.295,0 -0.56,10e-4 -1.121,0.061 -1.68,0.108 -0.382,0.032 -0.598,0.321 -0.716,0.625 -0.118,0.308 -0.16,0.657 -0.17,0.99 -0.027,1.013 -0.029,2.028 -0.029,3.041 -0.001,38.986 -0.002,77.971 0.004,116.957 0,1.237 0.061,2.474 0.117,3.709 0.02,0.448 0.444,0.887 0.838,0.917 0.559,0.043 1.12,0.095 1.681,0.096 7.098,0.006 14.197,0.007 21.296,-10e-4 0.559,-10e-4 1.119,-0.069 1.679,-0.109 0.394,-0.028 0.597,-0.334 0.72,-0.626 0.128,-0.301 0.158,-0.659 0.166,-0.992 C -0.003,60.731 -0.001,59.604 0,58.478 0,38.985 0,19.492 0,0"
            style="fill:#1d1d1b;fill-opacity:1;fill-rule:nonzero;stroke:none" id="path54" />
        </g>
        <g id="g56" transform="translate(247.5108,364.8363)">
          <path id="path58" style="fill:#1d1d1b;fill-opacity:1;fill-rule:nonzero;stroke:none"
            d="m 0,0 c -4.535122,-4.7058525 -10.377417,-8.3750462 -14.384,-13.715 -3.980753,-5.423636 -6.667873,-11.814886 -9.671297,-18.075766 -2.591926,-5.859859 -5.064484,-11.699529 -7.562918,-17.532963 -1.186643,-5.429546 -5.411445,-11.730255 -4.158785,-16.544271 16.253061,3.139084 31.503308,11.014982 43.653,22.222 5.246193,4.632308 9.87171,10.070728 13.571,16.017 3.239445,5.26456 6.817011,10.5018 7.91475,16.747125 C 30.679771,-4.1716715 26.069926,2.7285907 19.27592,3.8529941 12.552714,4.7560605 6.0875056,2.3951701 0,0 Z m -16.513,-80.727 c -6.162422,-0.668132 -10.905981,-4.69716 -15.38975,-8.652875 -12.447284,-12.956765 -21.377248,-29.185085 -26.39225,-46.395125 0.536239,-5.02057 -6.79495,-11.61687 -8.814875,-4.39344 1.038505,6.52195 4.47846,12.43336 5.916875,18.88044 3.034597,8.33014 4.991011,17.0392 7.827,25.447 1.469419,7.142968 4.732139,13.778902 6.022611,20.927559 -6.237511,1.270432 -13.611737,0.435427 -20.260984,1.357566 -5.668952,-0.234877 -18.411667,2.346017 -13.928377,9.946125 5.245173,-0.92238 10.751187,-3.830303 16.631,-3.361875 6.789128,-0.05265 13.807359,-0.760446 20.44475,0.453625 3.115125,8.288354 5.744813,16.743629 9.362,24.857 3.084341,6.73662 5.533955,13.941149 9.8705,19.992375 3.24226,5.733892 6.83049,11.431849 11.595969,16.0471875 C -10.147519,-0.02194756 -3.6572922,1.7342882 0.564125,5.952 6.7455395,8.0002966 13.277739,9.449389 19.769,9.341 25.099206,8.3449266 30.945701,5.4935888 33.020789,-0.08298047 36.424921,-6.0899768 34.801389,-12.908813 32.464659,-18.913773 28.439714,-31.015994 20.056777,-41.229502 11.173933,-50.157979 -1.256432,-61.723007 -17.095835,-69.862401 -33.802031,-72.917094 c -9.13917,1.321271 -7.030468,-10.435008 -10.855219,-15.647406 -0.903932,-2.933992 -0.624876,-8.288666 1.43125,-2.75125 4.69597,4.107536 8.151162,9.651277 13.293875,13.46425 6.313617,3.853251 14.420077,5.413715 21.4432656,2.359516 8.87871545,-3.420793 14.0052664,-12.847979 13.9377344,-22.075891 1.0898453,-6.879735 -0.9778988,-13.678405 -1.8135,-20.480495 -2.6710648,-7.27978 -2.5477308,-15.40332 -5.89475,-22.32388 1.87957294,-4.98787 -7.6568527,-9.95834 -5.767625,-2.51275 0.9165983,5.3725 1.7757561,10.84565 2.890252,16.29738 2.3455837,11.9133 6.4878164,24.26305 3.133748,36.39162 -1.9064129,5.733487 -7.8846509,8.971067 -13.67275,9.071156 z" />
        </g>
        <g id="g60" transform="translate(294.4673,292.9666)">
          <path id="path62" style="fill:#1d1d1b;fill-opacity:1;fill-rule:nonzero;stroke:none"
            d="m 0,0 c 9.4742522,-3.7556812 19.308613,-7.1320203 27.78142,-13.064854 8.275643,-5.547406 16.429695,-11.703108 22.19858,-19.961521 6.547017,-3.849273 7.826755,-12.489643 12.691234,-18.425687 3.704446,-8.374758 12.791475,-17.94839 8.234266,-27.460438 -7.997801,-3.468054 -3.880799,10.581292 -8.952533,14.22027 -4.688422,8.773219 -10.328046,17.13853 -15.833592,25.322105 C 32.532409,-23.470986 14.14883,-11.615489 -6.137,-6.345 c -6.683471,0.1570643 -8.531368,9.5782666 -0.372125,7.843125 -2.3106356,8.2928299 10.1166433,3.9937179 14.168,8.8835 13.756614,7.693389 27.967343,15.706061 37.934297,28.244266 C 56.225717,50.659344 63.094221,65.500004 67.288,80.874 70.507766,89.757658 77.75461,81.429421 73.231832,75.478053 68.701438,56.844615 58.527942,39.615915 44.742377,26.368529 39.177966,21.350686 35.032122,16.845698 28.041453,13.8465 20.812046,8.7520069 12.196546,5.7009111 5.100625,0.6335 3.3381139,0.93047992 1.6093773,0.91943905 0,0 Z" />
        </g>
        <g id="g64" transform="translate(97.1323,310.6927)">
          <path
            d="m 0,0 c 0,1.578 -0.018,3.156 0.01,4.733 0.009,0.491 0.357,0.819 0.81,0.962 0.643,0.204 1.307,0.339 1.952,0.537 2.84,0.87 5.433,2.198 7.609,4.246 2.191,2.061 3.739,4.493 4.161,7.539 0.035,0.259 -0.349,0.721 -0.595,0.692 -0.334,-0.038 -0.666,-0.115 -1.001,-0.131 -1.235,-0.062 -2.473,-0.173 -3.707,-0.141 -1.71,0.044 -3.333,0.537 -4.879,1.256 -4.29,1.996 -6.423,5.542 -6.967,10.083 -0.768,6.41 2.767,11.286 7.497,13.55 1.743,0.834 3.567,1.385 5.511,1.496 2.259,0.128 4.497,0.115 6.698,-0.554 3.365,-1.024 6.04,-2.975 8.043,-5.851 1.844,-2.648 2.931,-5.6 3.169,-8.805 C 28.689,24.505 28.178,19.479 26.524,14.605 22.98,4.164 15.698,-2.271 5.195,-5.233 4.544,-5.417 3.884,-5.571 3.219,-5.69 c -3.229,-0.579 -3.284,-0.488 -3.273,2.646 0.004,1.015 0,2.029 0,3.044 z"
            style="fill:#1d1d1b;fill-opacity:1;fill-rule:nonzero;stroke:none" id="path66" />
        </g>
        <g id="g68" transform="translate(403.5235,339.6742)">
          <path id="path70" style="fill:#1d1d1b;fill-opacity:1;fill-rule:nonzero;stroke:none"
            d="M 0,0 C 1.325807,-7.1231079 9.2996621,-10.839368 14.235004,-15.637219 25.378023,-24.554668 38.697154,-30.180882 52.32,-34.036 62.843821,-39.405034 49.748041,-43.428707 44.143,-39.252 26.045524,-34.077461 9.1695356,-23.920059 -3.3894688,-9.8695469 -13.150353,0.90974478 -20.011291,14.00903 -26.586,26.88 c -3.643843,3.736121 -1.017403,18.258159 4.947,11.214 -0.04494,-9.855643 6.929383,-17.994384 11.6545781,-26.126891 C -7.3831634,7.0887505 -4.2310461,3.2080465 0,0 Z" />
        </g>
        <g id="g72" transform="translate(416.044,274.0946)">
          <path id="path74" style="fill:#1d1d1b;fill-opacity:1;fill-rule:nonzero;stroke:none"
            d="M 0,0 C 8.7886267,2.2335798 15.711044,9.5140469 24.219449,12.931061 29.647566,15.504747 40.976945,21.953443 43.923,13.659 38.966383,9.3217216 29.04125,9.7417205 23.198734,4.3226406 16.032565,0.12848886 8.9159369,-4.7735561 2.551,-9.639375 -13.680204,-22.801219 -24.652258,-41.817815 -30.03,-61.8585 c -0.810828,-7.298268 -10.378957,-5.872609 -6.921918,1.536332 4.357405,20.340802 15.308324,39.382713 30.7586211,53.283918 C -3.2329237,-5.4721799 -1.6978472,-2.754094 0,0 Z" />
        </g>
        <g id="g76" transform="translate(200.8936,91.3026)">
          <path
            d="m 0,0 c 0,5.638 0.005,11.275 -0.006,16.913 -0.002,0.785 -0.036,1.579 -0.161,2.353 -0.042,0.257 -0.389,0.62 -0.642,0.663 -0.771,0.131 -1.565,0.17 -2.351,0.174 -3.269,0.018 -6.539,10e-4 -9.809,0.025 -0.551,0.004 -1.108,0.12 -1.647,0.25 -0.176,0.042 -0.383,0.269 -0.433,0.451 -0.119,0.427 -0.206,0.877 -0.21,1.319 -0.023,2.368 -0.019,4.736 -0.02,7.103 -10e-4,3.722 -0.002,7.442 0.004,11.163 0.001,0.564 0.026,1.127 0.061,1.69 0.036,0.586 0.506,1.092 1.043,1.123 0.674,0.038 1.35,0.057 2.025,0.08 1.014,0.034 2.031,0.02 3.041,0.104 5.498,0.458 9.47,3.768 10.94,9.068 0.456,1.641 0.676,3.306 0.665,5.011 -0.018,2.932 -0.009,5.864 0.01,8.795 0.004,0.558 0.07,1.121 0.18,1.668 0.036,0.177 0.279,0.376 0.471,0.442 0.313,0.11 0.66,0.163 0.993,0.164 6.765,0.008 13.53,0.006 20.295,0.003 0.224,0 0.447,-0.046 0.671,-0.069 0.433,-0.043 0.877,-0.441 0.895,-0.847 0.044,-1.012 0.095,-2.025 0.097,-3.038 0.009,-6.088 -0.002,-12.176 0.013,-18.265 0.001,-0.782 0.083,-1.568 0.185,-2.344 0.023,-0.175 0.268,-0.417 0.449,-0.457 0.545,-0.122 1.107,-0.217 1.663,-0.22 3.383,-0.02 6.766,-0.011 10.148,-0.016 1.014,-0.002 2.03,-0.002 3.044,-0.033 0.967,-0.029 1.403,-0.473 1.42,-1.475 0.029,-1.691 0.03,-3.382 0.031,-5.073 0.003,-4.736 0.001,-9.472 -0.003,-14.207 -10e-4,-0.451 -0.039,-0.901 -0.061,-1.35 -0.02,-0.39 -0.474,-0.899 -0.846,-0.924 -0.786,-0.053 -1.572,-0.124 -2.358,-0.127 -3.608,-0.013 -7.216,10e-4 -10.824,-0.015 -0.671,-0.004 -1.342,-0.103 -2.012,-0.164 -0.395,-0.036 -0.629,-0.362 -0.695,-0.651 -0.124,-0.542 -0.141,-1.116 -0.141,-1.678 -0.006,-9.922 0,-19.844 -0.003,-29.766 0,-1.475 0.138,-2.92 0.604,-4.334 0.72,-2.186 2.13,-3.657 4.31,-4.418 1.076,-0.375 2.172,-0.592 3.308,-0.624 2.144,-0.06 4.282,-0.062 6.398,0.389 0.428,0.092 0.885,0.102 1.322,0.068 0.176,-0.014 0.428,-0.219 0.482,-0.388 0.132,-0.42 0.235,-0.87 0.236,-1.307 0.016,-5.977 0.013,-11.953 0.011,-17.928 0,-0.338 -0.021,-0.676 -0.053,-1.013 -0.058,-0.61 -0.373,-1.094 -0.933,-1.296 -1.164,-0.419 -2.332,-0.872 -3.537,-1.122 -6.497,-1.349 -12.98,-1.388 -19.422,0.375 -2.295,0.628 -4.477,1.53 -6.528,2.737 -5.737,3.377 -9.327,8.39 -11.103,14.739 -0.916,3.277 -1.203,6.649 -1.211,10.043 C -0.006,-10.824 0.003,-5.412 0.003,0 Z"
            style="fill:#1d1d1b;fill-opacity:1;fill-rule:nonzero;stroke:none" id="path78" />
        </g>
        <g id="g80" transform="translate(517.3174,108.4139)">
          <path
            d="m 0,0 c 0,-19.269 0,-38.538 -0.001,-57.808 0,-1.013 0.01,-2.028 -0.007,-3.042 -0.032,-2.03 -0.228,-2.243 -2.389,-2.254 -4.734,-0.023 -9.466,-0.011 -14.199,-0.01 -2.591,0 -5.183,0.005 -7.775,0.016 -0.336,10e-4 -0.672,0.056 -1.007,0.09 -0.44,0.046 -0.864,0.44 -0.907,0.843 -0.035,0.336 -0.085,0.672 -0.09,1.008 -0.015,1.014 -0.013,2.028 -0.014,3.043 0,38.876 0,77.752 10e-4,116.629 0,1.013 -0.02,2.029 0.02,3.042 0.051,1.312 0.188,1.691 1.865,1.747 0.45,0.014 0.901,0.015 1.352,0.015 6.648,10e-4 13.297,0.003 19.945,-0.003 0.675,0 1.351,-0.037 2.023,-0.082 0.611,-0.042 1.105,-0.496 1.126,-1.034 0.033,-0.787 0.052,-1.576 0.054,-2.364 C 0.004,57.47 0,55.104 0,52.736 Z"
            style="fill:#1d1d1b;fill-opacity:1;fill-rule:nonzero;stroke:none" id="path82" />
        </g>
        <g id="g84" transform="translate(363.4932,103.5067)">
          <path id="path86" style="fill:#1d1d1b;fill-opacity:1;fill-rule:nonzero;stroke:none"
            d="m 0,0 c 4.6166155,-0.25361553 8.1522774,2.6615976 12.636282,3.4031926 7.282551,2.3022324 13.843433,6.3277519 20.474574,9.9735714 4.892557,3.945263 10.988532,7.583394 13.026691,13.882549 C 47.627545,33.26221 38.563571,33.766717 34.661,33.301 30.585006,32.65687 26.293981,32.836978 22.259226,31.616323 12.191731,29.491374 2.4592285,25.189461 -5.387,18.474 -9.1984114,14.757164 -12.356721,10.367602 -14.782109,5.6786875 -16.710015,2.6490386 -17.790532,-1.4537743 -12.858578,-1.3346094 -8.4791734,-1.7885305 -4.3560576,-0.29614732 0,0 Z m -18.641,-8.179 c -1.410369,-10.091061 -0.483594,-21.298106 5.916594,-29.630313 3.792929,-4.879215 10.2781293,-6.733378 16.214561,-5.588584 19.915732,2.652721 36.369513,19.48623 40.35047,38.914647 0.337451,5.34679976 8.058638,3.63772583 5.194625,-1.560375 C 46.55613,-19.324027 38.578882,-31.201856 27.995,-39.445 c -4.388263,-3.398483 -9.364256,-6.122166 -14.586691,-8.020629 -6.1514385,-2.193538 -12.80971412,-3.225076 -19.312184,-2.215746 -4.785884,1.861937 -9.710864,3.978638 -12.261484,8.702391 -3.724417,3.548554 -5.122745,8.593399 -6.155641,13.473984 -1.55219,5.198105 -2.038208,10.859358 -1.152199,16.220924 2.512152,6.1925656 -4.613151,6.0340256 -8.335819,8.2114569 C -45.428109,2.6965198 -53.712135,15.319949 -53.145,28.44025 c 0.383863,4.42824 0.347701,9.097317 2.638996,13.145868 0.424457,4.623508 9.274807,7.927574 8.512004,1.563882 -4.528082,-7.184055 -4.463255,-16.424311 -2.020203,-24.326094 2.361401,-4.887947 5.00033,-9.7777335 9.743203,-12.724906 2.866574,-1.9082382 9.114162,-7.2272553 11.633123,-4.0309805 3.032322,9.9560015 9.718446,18.7371585 18.0145333,24.9581365 4.78011489,2.527617 8.8381259,6.526441 14.2140156,7.752016 4.6725241,1.864467 9.2787031,4.135627 14.4097031,4.391484 4.396488,0.822237 8.801497,1.750582 13.307789,1.584246 4.586399,-0.286906 9.693391,-0.417448 13.338707,-3.637131 4.663898,-4.534866 1.965796,-11.767094 -1.00218,-16.489842 C 45.855588,14.750953 39.977958,10.689178 34.592406,6.3955781 29.971677,3.5656535 25.305277,0.78462253 20.232,-1.182 9.1684081,-6.5596195 -3.2975015,-8.8964529 -15.564328,-7.9441719 -16.57595,-7.9999539 -17.725458,-7.5817666 -18.641,-8.179 Z" />
        </g>
      </g>
    </g>
  </g>
</svg>